{
	"info": {
		"_postman_id": "7c7d2a00-fd05-41b6-9574-29b98fa4f558",
		"name": "Fun translations",
		"description": "A few funny translations, like talking as Yoda",
		"schema": "https://schema.getpostman.com/json/collection/v2.1.0/collection.json"
	},
	"item": [
		{
			"name": "Yoda",
			"request": {
				"method": "POST",
				"header": [],
				"body": {
					"mode": "raw",
					"raw": "{\r\n    \"text\": \"Hello, I am learning how to test APIs with Postman!\"\r\n}\r\n",
					"options": {
						"raw": {
							"language": "json"
						}
					}
				},
				"url": {
					"raw": "https://api.funtranslations.com/translate/yoda",
					"protocol": "https",
					"host": [
						"api",
						"funtranslations",
						"com"
					],
					"path": [
						"translate",
						"yoda"
					]
				},
				"description": "Post query to talk like Yoda.\n- It needs to fill the body of the request"
			},
			"response": []
		}
	],
	"protocolProfileBehavior": {}
}